{
  "_meta": {
    "sources": [
      "loopback/common/models",
      "loopback/server/models",
      "../common/models",
      "./models"
    ],
    "mixins": [
      "loopback/common/mixins",
      "loopback/server/mixins",
      "../common/mixins",
      "./mixins"
    ]
  },
  "AccessToken": {
    "dataSource": "postgres",
    "public": false
  },
  "ACL": {
    "dataSource": "postgres",
    "public": false
  },
  "RoleMapping": {
    "dataSource": "postgres",
    "public": false
  },
  "Role": {
    "dataSource": "postgres",
    "public": false
  },
  "QualityUser": {
    "dataSource": "postgres",
    "public": true
  },
  "Serie": {
    "dataSource": "postgres",
    "public": true,
    "$promise": {},
    "$resolved": true
  },
  "Saison": {
    "dataSource": "postgres",
    "public": true,
    "$promise": {},
    "$resolved": true
  },
  "Episode": {
    "dataSource": "postgres",
    "public": false,
    "$promise": {},
    "$resolved": true
  },
  "Category": {
    "dataSource": "postgres",
    "public": false
  },
  "Film": {
    "dataSource": "postgres",
    "public": true,
    "$promise": {},
    "$resolved": true
  },
  "airs": {
    "dataSource": null,
    "public": false
  },
  "fanart": {
    "dataSource": null,
    "public": false
  },
  "ids": {
    "dataSource": null,
    "public": false
  },
  "poster": {
    "dataSource": null,
    "public": false
  },
  "screenshot": {
    "dataSource": null,
    "public": false
  }
}
