{
  "name": "Saison",
  "base": "PersistedModel",
  "idInjection": true,
  "options": {
    "validateUpsert": true
  },
  "properties": {
    "aired_episodes": {
      "type": "number"
    },
    "ids": {
      "type": "ids"
    },
    "poster": {
      "type": "poster"
    },
    "episodes_count": {
      "type": "number"
    },
    "number": {
      "type": "number"
    },
    "serieid": {
      "type": "number"
    }
  },
  "validations": [],
  "relations": {
    "episodes": {
      "type": "hasMany",
      "model": "Episode",
      "foreignKey": "saisonid"
    }
  },
  "acls": [
    {
      "accessType": "*",
      "principalType": "ROLE",
      "principalId": "$authenticated",
      "permission": "ALLOW"
    },
    {
      "accessType": "*",
      "principalType": "ROLE",
      "principalId": "$authenticated",
      "permission": "ALLOW"
    },
    {
      "accessType": "*",
      "principalType": "ROLE",
      "principalId": "$unauthenticated",
      "permission": "DENY"
    }
  ],
  "methods": {}
}
